…
path_tidy
```

    ## # A tibble: 160 x 4
    ##    id    arm      week value
    ##    <fct> <chr>   <dbl> <dbl>
    ##  1 01    control     1  0.2 
    ##  2 01    control     2 -1.31
    ##  3 01    control     3  0.66
    ##  4 01    control     4  1.96
    ##  5 01    control     5  0.23
    ##  6 01    control     6  1.09
    ##  7 01    control     7  0.05
    ##  8 01    control     8  1.94
    ##  9 02    control     1  1.13
    ## 10 02    control     2 -0.88
    ## # … with 150 more rows
…
``` r
output = vector("list", length = 50)

for (i in 1:50) {
  
  output[[i]] = power_sim(mu = 0)
  
}

bind_rows(output)
```

    ## # A tibble: 50 x 2
    ##    mu_hat p_value
    ##     <dbl>   <dbl>
    ##  1  2.03    0.643
    ##  2  1.84    0.694
    ##  3  2.49    0.449
    ##  4  3.02    0.396
    ##  5  2.49    0.492
    ##  6  2.08    0.554
    ##  7  2.42    0.594
    ##  8  1.92    0.486
    ##  9  0.963   0.805
    ## 10  3.02    0.328
    ## # … with 40 more rows
…
output = vector("list", length = 7)

for (i in 1:7) {
  
  output[[i]] = 
    rerun(50, power_sim(mu = mu_list[[i]])) %>% 
    bind_rows()
  
}

output
```

    ## [[1]]
    ## # A tibble: 50 x 2
    ##    mu_hat p_value
    ##     <dbl>   <dbl>
    ##  1  2.59    0.552
    ##  2  3.13    0.296
    ##  3  1.77    0.646
    ##  4  1.34    0.659
    ##  5  3.52    0.311
    ##  6  1.34    0.728
    ##  7  3.08    0.421
    ##  8  2.74    0.434
    ##  9  2.53    0.441
    ## 10  0.989   0.801
    ## # … with 40 more rows
    ## 
    ## [[2]]
    ## # A tibble: 50 x 2
    ##    mu_hat p_value
    ##     <dbl>   <dbl>
    ##  1   3.49   0.153
    ##  2   2.99   0.387
    ##  3   2.92   0.361
    ##  4   2.96   0.232
    ##  5   2.34   0.509
    ##  6   2.54   0.516
    ##  7   3.37   0.362
    ##  8   3.23   0.378
    ##  9   2.73   0.508
    ## 10   3.67   0.174
    ## # … with 40 more rows
    ## 
    ## [[3]]
    ## # A tibble: 50 x 2
    ##    mu_hat p_value
    ##     <dbl>   <dbl>
    ##  1   3.43  0.314 
    ##  2   2.77  0.370 
    ##  3   4.10  0.234 
    ##  4   2.84  0.306 
    ##  5   3.43  0.220 
    ##  6   3.13  0.331 
    ##  7   3.02  0.332 
    ##  8   3.51  0.180 
    ##  9   5.13  0.148 
    ## 10   4.16  0.0985
    ## # … with 40 more rows
    ## 
    ## [[4]]
    ## # A tibble: 50 x 2
    ##    mu_hat p_value
    ##     <dbl>   <dbl>
    ##  1   4.13  0.211 
    ##  2   3.59  0.184 
    ##  3   3.90  0.180 
    ##  4   4.50  0.145 
    ##  5   4.35  0.125 
    ##  6   3.90  0.152 
    ##  7   3.49  0.353 
    ##  8   3.07  0.329 
    ##  9   4.24  0.0706
    ## 10   2.66  0.0819
    ## # … with 40 more rows
    ## 
    ## [[5]]
    ## # A tibble: 50 x 2
    ##    mu_hat p_value
    ##     <dbl>   <dbl>
    ##  1   5.18 0.0551 
    ##  2   4.63 0.110  
    ##  3   3.79 0.0230 
    ##  4   4.98 0.0728 
    ##  5   4.69 0.0518 
    ##  6   5.15 0.00531
    ##  7   4.25 0.0182 
    ##  8   4.73 0.101  
    ##  9   4.92 0.0258 
    ## 10   3.89 0.0545 
    ## # … with 40 more rows
    ## 
    ## [[6]]
    ## # A tibble: 50 x 2
    ##    mu_hat p_value
    ##     <dbl>   <dbl>
    ##  1   4.98 0.0339 
    ##  2   4.90 0.114  
    ##  3   6.26 0.106  
    ##  4   5.78 0.00915
    ##  5   5.64 0.0309 
    ##  6   4.88 0.0636 
    ##  7   4.88 0.0306 
    ##  8   6.01 0.0264 
    ##  9   4.88 0.00244
    ## 10   5.49 0.0560 
    ## # … with 40 more rows
    ## 
    ## [[7]]
    ## # A tibble: 50 x 2
    ##    mu_hat p_value
    ##     <dbl>   <dbl>
    ##  1   5.61 0.0120 
    ##  2   5.54 0.0449 
    ##  3   6.19 0.0240 
    ##  4   6.17 0.0640 
    ##  5   5.70 0.0509 
    ##  6   5.41 0.122  
    ##  7   5.74 0.0777 
    ##  8   5.07 0.0319 
    ##  9   5.52 0.00537
    ## 10   6.17 0.00398
    ## # … with 40 more rows
…
sim_df
```

    ## # A tibble: 35,000 x 3
    ##       mu mu_hat p_value
    ##    <dbl>  <dbl>   <dbl>
    ##  1     0   2.76   0.438
    ##  2     0   3.47   0.365
    ##  3     0   2.37   0.547
    ##  4     0   2.39   0.598
    ##  5     0   1.92   0.435
    ##  6     0   2.70   0.444
    ##  7     0   2.94   0.543
    ##  8     0   2.07   0.605
    ##  9     0   2.67   0.423
    ## 10     0   1.83   0.611
    ## # … with 34,990 more rows
…
